#"C:\Program Files (x86)\Micro Focus\Visual COBOL\bin\cobol.exe" "C:\Users\Project Manager\workspace\HomeCentryWEB\src\com\mf\SentryWeb.cbl" "INTC:\Users\Project Manager\workspace\HomeCentryWEB\bin"" ILOUTPUTC:\Users\Project" "Manager\workspace\HomeCentryWEB\bin""" "USEC:\Users\Project Manager\workspace\HomeCentryWEB\bin\mfant6539714216173652320.dir" ;
^"C:\Users\Project Manager\workspace\HomeCentryWEB\src\com\mf\SentryWeb.cbl"
-"C:\Users\Project Manager\workspace\HomeCentryWEB\src\com\mf\SentryWeb.cbl"
!"C:\Users\Project Manager\workspace\HomeCentryWEB/src/com/mf/idxtbllog.cbl"
+"C:\Users\Project Manager\workspace\HomeCentryWEB/src/com/mf/idxtbllog.cbl"
-"C:\Users\Project Manager\workspace\HomeCentryWEB/src/com/mf/idxtbllog.cbl"
!"C:\Users\Project Manager\workspace\HomeCentryWEB/src/com/mf/ejeprogram.cbl"
+"C:\Users\Project Manager\workspace\HomeCentryWEB/src/com/mf/ejeprogram.cbl"
